2021-02-20 13:19:26 AK-47 | Frontside Misty (Battle-Scarred)           1     0.01  10.5 
2021-02-20 13:19:26 M4A4 | Desolate Space (Battle-Scarred)             1     0.01  6.51 
2021-02-20 13:19:26 Glock-18 | Water Elemental (Minimal Wear)          1     0.01  5.1  
2021-02-20 13:19:26 AWP | Asiimov (Battle-Scarred)                     1     0.01  38.5 
2021-02-20 13:19:26 AK-47 | Bloodsport (Field-Tested)                  1     0.01  39.65
2021-02-20 13:19:26 AK-47 | Aquamarine Revenge (Battle-Scarred)        1     0.01  15.95
2021-02-20 13:19:26 P250 | Asiimov (Battle-Scarred)                    0     0.01  2.54 
2021-02-20 13:19:26 AK-47 | Point Disarray (Minimal Wear)              1     0.01  20.5 
2021-02-20 13:19:26 Glock-18 | Wasteland Rebel (Factory New)           1     0.01  7.5  
2021-02-20 13:19:26 <Response [200]>
2021-02-20 13:19:26 AK-47 | Neon Revolution (Field-Tested)             1     0.01  17.0 
2021-02-20 13:19:26 <Response [200]>
2021-02-20 13:19:26 M4A1-S | Cyrex (Factory New)                       1     0.01  10.7 
2021-02-20 13:19:27 <Response [200]>
2021-02-20 13:19:27 StatTrak™ AWP | Atheris (Minimal Wear)             1     0.01  11.55
2021-02-20 13:19:27 <Response [200]>
2021-02-20 13:19:27 M4A1-S | Control Panel (Factory New)               1     0.01  18.55
2021-02-20 13:19:27 <Response [200]>
2021-02-20 13:19:27 AK-47 | Point Disarray (Field-Tested)              1     0.01  15.0 
2021-02-20 13:19:27 <Response [200]>
2021-02-20 13:19:27 ★ Navaja Knife                                     1     0.01  56.0 
2021-02-20 13:19:27 <Response [200]>
2021-02-20 13:19:27 StatTrak™ M4A4 | Desolate Space (Field-Tested)     1     0.01  21.0 
2021-02-20 13:19:27 <Response [200]>
2021-02-20 13:19:27 ★ Navaja Knife | Marble Fade (Factory New)         1     0.01  108.2
2021-02-20 13:19:27 <Response [200]>
2021-02-20 13:19:27 AK-47 | The Empress (Battle-Scarred)               1     0.01  23.25
2021-02-20 13:19:27 <Response [200]>
2021-02-20 13:19:27 AWP | Wildfire (Field-Tested)                      1     0.01  38.1 
2021-02-20 13:19:27 <Response [200]>
2021-02-20 13:19:27 <Response [200]>
2021-02-20 13:19:28 <Response [200]>
2021-02-20 13:19:28 <Response [200]>
2021-02-20 13:19:28 <Response [200]>
2021-02-20 13:19:28 <Response [200]>
2021-02-20 13:19:28 <Response [200]>
2021-02-20 13:19:28 <Response [200]>
2021-02-20 13:19:28 0:00:02.761222
2021-02-20 13:19:28 Adding job tentatively -- it will be properly scheduled when the scheduler starts
2021-02-20 13:19:28 Added job "main_run" to job store "default"
2021-02-20 13:19:28 Scheduler started
